<svg viewBox="0 0 200 200">
  <circle cx="100" cy="100" r="100"/>
  <path d="M100,160c-27.333,0-51.333-18.666-58-45c-0.667-3,1-6.333,4-7c3-0.666,6.333,1,7,4
    c5.667,21.334,25,36.334,47,36.334s41.333-15,47-36.334c0.666-3,4-5,7-4c3,0.667,5,4,4,7C151.333,141.334,127.333,160,100,160
    L100,160z"/>
</svg>

